threshold1,25,28,,,,,,,,,power_state,aroma_value
threshold2,35,38,,,,,,,12,0,1,14957665
mode,Simple,,,,,,,,,0.083333333,1,14957666
,,,,,,,,,,0.166666667,1,14957664
Device ID,Sample ID,temp_humi,element1,element2,element3,element4,element5,power_state,aroma_state,0.25,1,14957659
132,135,1825253565,14957665,0,0,0,0,1,0,0.333333333,1,14957655
132,185,1825908804,14957666,0,0,0,0,1,0,0.416666667,1,14957649
132,235,1825581079,14957664,0,0,0,0,1,0,0.5,1,14957647
132,30,1824925806,14957659,0,0,0,0,1,0,0.583333333,1,14957644
132,80,1825253421,14957655,0,0,0,0,1,0,0.666666667,1,14957643
132,130,1824204854,14957649,0,0,0,0,1,0,0.75,1,14957641
132,180,1824925873,14957647,0,0,0,0,1,0,0.833333333,1,14957639
132,230,1825908816,14957644,0,0,0,0,1,0,0.916666667,1,14957637
132,25,1821452317,14957643,0,0,0,0,1,0,1,1,14957634
132,75,1823877117,14957641,0,0,0,0,1,0,1.083333333,1,14957631
132,125,1822501026,14957639,0,0,0,0,1,0,1.166666667,1,14957631
132,176,1825581212,14957637,0,0,0,0,1,0,1.25,1,14957631
132,226,1820665937,14957634,0,0,0,0,1,1,1.333333333,1,14957628
132,21,1822828741,14957631,0,0,0,0,1,1,1.416666667,1,14957628
132,71,1819289671,14957631,0,0,0,0,1,1,1.5,0,14957625
132,121,1821780096,14957631,0,0,0,0,1,1,1.583333333,0,14957626
132,171,1816537154,14957628,0,0,0,0,1,1,1.666666667,0,14957628
132,221,1817913644,14957628,0,0,0,0,1,1,1.75,0,14957630
132,16,1816864900,14957625,0,0,0,0,0,2,1.833333333,0,14957632
132,66,1820338347,14957626,0,0,0,0,0,2,1.916666667,0,14957633
132,116,1820665937,14957628,0,0,0,0,0,2,2,0,14957635
132,166,1818962112,14957630,0,0,0,0,0,2,2.083333333,0,14957636
132,217,1818241158,14957632,0,0,0,0,0,1,2.166666667,0,14957637
132,12,1818962145,14957633,0,0,0,0,0,1,2.25,0,14957637
132,62,1818634531,14957635,0,0,0,0,0,1,2.333333333,0,14957639
132,112,1820666039,14957636,0,0,0,0,0,1,2.416666667,0,14957639
132,162,1818241192,14957637,0,0,0,0,0,1,2.5,0,14957639
132,211,1816537321,14957637,0,0,0,0,0,1,2.583333333,0,14957640
132,7,1818241225,14957639,0,0,0,0,0,1,2.666666667,0,14957640
132,57,1816537298,14957639,0,0,0,0,0,1,2.75,1,14957641
132,107,1818634465,14957639,0,0,0,0,0,1,2.833333333,1,14957640
132,157,1815161117,14957640,0,0,0,0,0,1,2.916666667,1,14957638
132,207,1817192726,14957640,0,0,0,0,0,1,3,1,14957635
132,2,1815816444,14957641,0,0,0,0,1,0,3.083333333,1,14957631
132,52,1816537421,14957640,0,0,0,0,1,0,3.166666667,1,14957627
132,103,1816209650,14957638,0,0,0,0,1,0,3.25,0,14957626
132,153,1817585919,14957635,0,0,0,0,1,1,3.333333333,0,14957626
132,203,1814833460,14957631,0,0,0,0,1,1,3.416666667,0,14957630
132,253,1814440310,14957627,0,0,0,0,1,1,3.5,0,14957632
132,48,1813391665,14957626,0,0,0,0,0,2,3.583333333,0,14957633
132,98,1813391798,14957626,0,0,0,0,0,2,3.666666667,0,14957634
132,148,1814440299,14957630,0,0,0,0,0,2,3.75,0,14957635
132,198,1813784870,14957632,0,0,0,0,0,1,3.833333333,0,14957636
132,248,1816209762,14957633,0,0,0,0,0,1,3.916666667,0,14957636
132,43,1814833493,14957634,0,0,0,0,0,1,4,0,14957637
132,93,1813784893,14957635,0,0,0,0,0,1,4.083333333,0,14957637
132,144,1813063917,14957636,0,0,0,0,0,1,4.166666667,0,14957637
132,194,1813784848,14957636,0,0,0,0,0,1,4.25,0,14957638
132,244,1814833371,14957637,0,0,0,0,0,1,4.333333333,0,14957638
132,39,1812015452,14957637,0,0,0,0,0,1,4.416666667,0,14957639
132,89,1812736204,14957637,0,0,0,0,0,1,4.5,0,14957639
132,139,1814112451,14957638,0,0,0,0,0,1,4.583333333,0,14957640
132,189,1811359978,14957638,0,0,0,0,0,1,4.666666667,0,14957640
132,239,1810639138,14957639,0,0,0,0,0,1,4.75,0,14957639
132,34,1810311435,14957639,0,0,0,0,0,1,4.833333333,1,14957641
132,84,1813063952,14957640,0,0,0,0,0,1,4.916666667,1,14957641
132,134,1811360013,14957640,0,0,0,0,0,1,5,1,14957637
132,184,1812015374,14957639,0,0,0,0,0,1,5.083333333,1,14957631
132,234,1809983811,14957641,0,0,0,0,1,0,5.166666667,1,14957630
132,29,1811359969,14957641,0,0,0,0,1,0,5.25,0,14957626
132,80,1808607564,14957637,0,0,0,0,1,0,5.333333333,0,14957625
132,130,1809983788,14957631,0,0,0,0,1,1,5.416666667,0,14957628
132,180,1809590640,14957630,0,0,0,0,1,1,5.5,0,14957629
132,230,1810966830,14957626,0,0,0,0,0,2,5.583333333,0,14957632
132,25,1809262781,14957625,0,0,0,0,0,2,5.666666667,0,14957631
132,75,1809262880,14957628,0,0,0,0,0,2,5.75,0,14957632
132,125,1807559043,14957629,0,0,0,0,0,2,5.833333333,0,14957634
132,175,1809983733,14957632,0,0,0,0,0,1,5.916666667,0,14957633
132,225,1808214325,14957631,0,0,0,0,0,1,6,0,14957634
132,20,1809590595,14957632,0,0,0,0,0,1,6.083333333,0,14957634
132,70,1809983833,14957634,0,0,0,0,0,1,6.166666667,0,14957635
132,120,1808214370,14957633,0,0,0,0,0,1,6.25,0,14957636
132,171,1809262948,14957634,0,0,0,0,0,1,6.333333333,0,14957637
132,221,1807559043,14957634,0,0,0,0,0,1,6.416666667,0,14957638
132,16,1807558998,14957635,0,0,0,0,0,1,6.5,0,14957638
132,66,1805789511,14957636,0,0,0,0,0,1,6.583333333,0,14957638
132,116,1808607541,14957637,0,0,0,0,0,1,6.666666667,0,14957638
132,166,1808935155,14957638,0,0,0,0,0,1,6.75,0,14957638
132,214,1808935290,14957638,0,0,0,0,0,1,6.833333333,0,14957637
132,9,1808935245,14957638,0,0,0,0,0,1,6.916666667,0,14957637
132,61,1807165781,14957638,0,0,0,0,0,1,7,0,14957638
132,111,1807165680,14957638,0,0,0,0,0,1,7.083333333,0,14957638
132,161,1807558919,14957637,0,0,0,0,0,1,7.166666667,0,14957639
132,211,1806838078,14957637,0,0,0,0,0,1,7.25,0,14957638
132,6,1808607519,14957638,0,0,0,0,0,1,7.333333333,0,14957637
132,56,1806510341,14957638,0,0,0,0,0,1,7.416666667,0,14957638
132,106,1807165836,14957639,0,0,0,0,0,1,7.5,0,14957638
132,157,1807165836,14957638,0,0,0,0,0,1,7.583333333,0,14957638
132,207,1806838101,14957637,0,0,0,0,0,1,7.666666667,0,14957638
132,2,1806182729,14957638,0,0,0,0,0,1,7.75,0,14957638
132,52,1807165859,14957638,0,0,0,0,0,1,7.833333333,0,14957639
132,102,1807559031,14957638,0,0,0,0,0,1,7.916666667,0,14957638
132,152,1805068648,14957638,0,0,0,0,0,1,8,0,14957639
132,202,1805789523,14957638,0,0,0,0,0,1,8.083333333,0,14957639
132,252,1805789534,14957639,0,0,0,0,0,1,8.166666667,0,14957639
132,47,1806838111,14957638,0,0,0,0,0,1,8.25,0,14957639
132,97,1806510454,14957639,0,0,0,0,0,1,8.333333333,0,14957640
132,147,1804347740,14957639,0,0,0,0,0,1,8.416666667,0,14957639
132,197,1807165713,14957639,0,0,0,0,0,1,8.5,0,14957639
132,247,1808214291,14957639,0,0,0,0,0,1,8.583333333,0,14957640
132,43,1805068626,14957640,0,0,0,0,0,1,8.666666667,0,14957640
132,93,1808214447,14957639,0,0,0,0,0,1,8.75,0,14957640
132,143,1805789523,14957639,0,0,0,0,0,1,8.833333333,1,14957641
132,193,1807165815,14957640,0,0,0,0,0,1,8.916666667,1,14957640
132,243,1807559021,14957640,0,0,0,0,0,1,9,1,14957635
132,38,1806838123,14957640,0,0,0,0,0,1,9.083333333,1,14957630
132,88,1805068704,14957641,0,0,0,0,1,0,9.166666667,0,14957624
132,138,1805068725,14957640,0,0,0,0,1,0,9.25,0,14957624
132,188,1806182817,14957635,0,0,0,0,1,1,9.333333333,0,14957627
132,238,1805789622,14957630,0,0,0,0,1,1,9.416666667,0,14957629
132,33,1805068737,14957624,0,0,0,0,0,2,9.5,0,14957630
132,83,1805396406,14957624,0,0,0,0,0,2,9.583333333,0,14957632
132,133,1804675455,14957627,0,0,0,0,0,2,9.666666667,0,14957632
132,183,1806838033,14957629,0,0,0,0,0,2,9.75,0,14957632
132,233,1805068581,14957630,0,0,0,0,0,2,9.833333333,0,14957633
132,28,1804675398,14957632,0,0,0,0,0,1,9.916666667,0,14957633
132,79,1805396340,14957632,0,0,0,0,0,1,10,0,14957634
132,129,1805396340,14957632,0,0,0,0,0,1,10.08333333,0,14957634
132,179,1803299251,14957633,0,0,0,0,0,1,10.16666667,0,14957634
132,229,1805396352,14957633,0,0,0,0,0,1,10.25,0,14957634
132,24,1804675420,14957634,0,0,0,0,0,1,10.33333333,0,14957635
132,74,1805068648,14957634,0,0,0,0,0,1,10.41666667,0,14957635
132,124,1802643813,14957634,0,0,0,0,0,1,10.5,0,14957635
132,174,1806510364,14957634,0,0,0,0,0,1,10.58333333,0,14957636
132,224,1804019993,14957635,0,0,0,0,0,1,10.66666667,0,14957635
132,19,1805789556,14957635,0,0,0,0,0,1,10.75,0,14957636
132,69,1805068603,14957635,0,0,0,0,0,1,10.83333333,0,14957636
132,120,1805789478,14957636,0,0,0,0,0,1,10.91666667,0,14957636
132,170,1804020048,14957635,0,0,0,0,0,1,11,0,14957637
132,220,1803299206,14957636,0,0,0,0,0,1,11.08333333,0,14957636
132,15,1804020048,14957636,0,0,0,0,0,1,11.16666667,0,14957636
132,65,1805068692,14957636,0,0,0,0,0,1,11.25,0,14957637
132,115,1805789511,14957637,0,0,0,0,0,1,11.33333333,0,14957637
132,165,1804020026,14957636,0,0,0,0,0,1,11.41666667,0,14957637
132,215,1803299140,14957636,0,0,0,0,0,1,11.5,0,14957637
132,9,1803299185,14957637,0,0,0,0,0,1,11.58333333,0,14957638
132,60,1803692379,14957637,0,0,0,0,0,1,11.66666667,0,14957638
132,110,1804675443,14957637,0,0,0,0,0,1,11.75,0,14957638
132,160,1803692334,14957637,0,0,0,0,0,1,11.83333333,0,14957637
132,210,1803692323,14957638,0,0,0,0,0,1,11.91666667,0,14957638
132,5,1803692334,14957638,0,0,0,0,0,1,12,0,14957639
132,55,1802643746,14957638,0,0,0,0,0,1,12.08333333,0,14957638
132,105,1801267533,14957637,0,0,0,0,0,1,12.16666667,0,14957638
132,155,1803299229,14957638,0,0,0,0,0,1,12.25,0,14957637
132,206,1804347718,14957639,0,0,0,0,0,1,12.33333333,0,14957639
132,1,1803299185,14957638,0,0,0,0,0,1,12.41666667,0,14957638
132,51,1800874382,14957638,0,0,0,0,0,1,12.5,0,14957637
132,101,1803299217,14957637,0,0,0,0,0,1,12.58333333,0,14957638
132,151,1803692401,14957639,0,0,0,0,0,1,12.66666667,0,14957637
132,201,1802316054,14957638,0,0,0,0,0,1,12.75,0,14957637
132,251,1802643845,14957637,0,0,0,0,0,1,12.83333333,0,14957637
132,46,1799891252,14957638,0,0,0,0,0,1,12.91666667,0,14957639
132,96,1804675398,14957637,0,0,0,0,0,1,13,0,14957639
132,146,1803299185,14957637,0,0,0,0,0,1,13.08333333,0,14957639
132,196,1804347817,14957637,0,0,0,0,0,1,13.16666667,0,14957638
132,246,1801595236,14957639,0,0,0,0,0,1,13.25,0,14957639
132,41,1802971570,14957639,0,0,0,0,0,1,13.33333333,0,14957639
132,91,1801267566,14957639,0,0,0,0,0,1,13.41666667,0,14957639
132,142,1802643801,14957638,0,0,0,0,0,1,13.5,0,14957639
132,192,1802971505,14957639,0,0,0,0,0,1,13.58333333,0,14957640
132,242,1804347839,14957639,0,0,0,0,0,1,13.66666667,0,14957639
132,37,1801595156,14957639,0,0,0,0,0,1,13.75,0,14957639
132,87,1801267499,14957639,0,0,0,0,0,1,13.83333333,0,14957639
132,137,1800874361,14957640,0,0,0,0,0,1,13.91666667,0,14957640
132,187,1802643867,14957639,0,0,0,0,0,1,14,0,14957639
132,237,1802643779,14957639,0,0,0,0,0,1,14.08333333,0,14957640
132,32,1801595168,14957639,0,0,0,0,0,1,14.16666667,0,14957640
132,81,1802316133,14957640,0,0,0,0,0,1,14.25,0,14957640
132,132,1802316066,14957639,0,0,0,0,0,1,14.33333333,0,14957639
132,180,1801595213,14957640,0,0,0,0,0,1,14.41666667,0,14957640
132,232,1799891184,14957640,0,0,0,0,0,1,14.5,0,14957640
132,27,1801922970,14957640,0,0,0,0,0,1,14.58333333,0,14957639
132,77,1800874370,14957639,0,0,0,0,0,1,14.66666667,0,14957640
132,128,1800546646,14957640,0,0,0,0,0,1,14.75,0,14957639
132,178,1802316088,14957640,0,0,0,0,0,1,14.83333333,0,14957639
132,228,1800546681,14957639,0,0,0,0,0,1,14.91666667,0,14957639
132,23,1801922848,14957640,0,0,0,0,0,1,15,0,14957639
132,73,1802316066,14957639,0,0,0,0,0,1,15.08333333,0,14957639
132,124,1802971471,14957639,0,0,0,0,0,1,15.16666667,0,14957639
132,174,1802316066,14957639,0,0,0,0,0,1,15.25,0,14957640
132,224,1801595111,14957639,0,0,0,0,0,1,15.33333333,1,14957641
132,19,1799891340,14957639,0,0,0,0,0,1,15.41666667,1,14957640
132,69,1800874305,14957639,0,0,0,0,0,1,15.5,1,14957636
132,119,1800874305,14957640,0,0,0,0,0,1,15.58333333,1,14957632
132,169,1801922883,14957641,0,0,0,0,1,0,15.66666667,0,14957626
132,219,1803298951,14957640,0,0,0,0,1,0,15.75,0,14957613
132,14,1800874238,14957636,0,0,0,0,1,1,15.83333333,0,14957612
132,64,1799170309,14957632,0,0,0,0,1,1,15.91666667,0,14957610
132,114,1800874293,14957626,0,0,0,0,0,2,16,0,14957613
132,164,1801922848,14957613,0,0,0,0,0,2,16.08333333,0,14957616
132,214,1801267566,14957612,0,0,0,0,0,2,16.16666667,0,14957617
132,9,1799891351,14957610,0,0,0,0,0,2,16.25,0,14957621
132,59,1800874370,14957613,0,0,0,0,0,2,16.33333333,0,14957622
132,109,1800874293,14957616,0,0,0,0,0,2,16.41666667,0,14957623
132,159,1799498103,14957617,0,0,0,0,0,2,16.5,0,14957624
132,209,1802971559,14957621,0,0,0,0,0,2,16.58333333,0,14957625
132,4,1801267598,14957622,0,0,0,0,0,2,16.66666667,0,14957627
132,54,1801595191,14957623,0,0,0,0,0,2,16.75,0,14957627
132,104,1801267598,14957624,0,0,0,0,0,2,16.83333333,0,14957627
132,155,1798842719,14957625,0,0,0,0,0,2,16.91666667,0,14957627
132,205,1800546568,14957627,0,0,0,0,0,2,17,0,14957628
132,255,1802643801,14957627,0,0,0,0,0,2,17.08333333,0,14957628
132,50,1797794109,14957627,0,0,0,0,0,2,17.16666667,0,14957630
132,100,1799497991,14957627,0,0,0,0,0,2,17.25,0,14957631
132,150,1799891241,14957628,0,0,0,0,0,2,17.33333333,0,14957631
132,200,1798842863,14957628,0,0,0,0,0,2,17.41666667,0,14957630
132,250,1800546723,14957630,0,0,0,0,0,2,17.5,0,14957632
132,45,1800218989,14957631,0,0,0,0,0,1,17.58333333,0,14957631
132,95,1800218954,14957631,0,0,0,0,0,1,17.66666667,0,14957632
132,145,1799891286,14957630,0,0,0,0,0,1,17.75,0,14957631
132,195,1797794086,14957632,0,0,0,0,0,1,17.83333333,0,14957632
132,245,1797794208,14957631,0,0,0,0,0,1,17.91666667,0,14957632
132,40,1800546579,14957632,0,0,0,0,0,1,18,0,14957631
132,91,1800218932,14957631,0,0,0,0,0,1,18.08333333,0,14957633
132,141,1801267410,14957632,0,0,0,0,0,1,18.16666667,0,14957633
132,191,1798842709,14957632,0,0,0,0,0,1,18.25,0,14957633
132,241,1798842686,14957631,0,0,0,0,0,1,18.33333333,0,14957634
132,36,1800874271,14957633,0,0,0,0,0,1,18.41666667,0,14957634
132,86,1797466360,14957633,0,0,0,0,0,1,18.5,0,14957634
132,136,1800874427,14957633,0,0,0,0,0,1,18.58333333,0,14957634
132,186,1799498081,14957634,0,0,0,0,0,1,18.66666667,0,14957634
132,236,1798121754,14957634,0,0,0,0,0,1,18.75,0,14957633
132,31,1798449436,14957634,0,0,0,0,0,1,18.83333333,0,14957634
132,81,1798449469,14957634,0,0,0,0,0,1,18.91666667,0,14957635
132,131,1799498081,14957634,0,0,0,0,0,1,19,0,14957635
132,181,1798449491,14957633,0,0,0,0,0,1,19.08333333,0,14957634
132,231,1797466504,14957634,0,0,0,0,0,1,19.16666667,0,14957635
132,27,1797794097,14957635,0,0,0,0,0,1,19.25,0,14957634
132,77,1797466427,14957635,0,0,0,0,0,1,19.33333333,0,14957634
132,127,1798449436,14957634,0,0,0,0,0,1,19.41666667,0,14957633
132,177,1798121799,14957635,0,0,0,0,0,1,19.5,0,14957634
132,227,1799891229,14957634,0,0,0,0,0,1,19.58333333,0,14957635
132,22,1799498069,14957634,0,0,0,0,0,1,19.66666667,0,14957634
132,72,1799497979,14957633,0,0,0,0,0,1,19.75,0,14957633
132,122,1801595224,14957634,0,0,0,0,0,1,19.83333333,0,14957634
132,172,1797073177,14957635,0,0,0,0,0,1,19.91666667,0,14957634
132,222,1800546579,14957634,0,0,0,0,0,1,20,0,14957634
132,17,1796745554,14957633,0,0,0,0,0,1,,,
132,67,1796745564,14957634,0,0,0,0,0,1,,,
132,117,1798449580,14957634,0,0,0,0,0,1,,,